GatesTest.vcd
$date
	Sat Apr 20 00:01:43 2024
$end
$version
	Icarus Verilog
$end
$timescale
	1ps
$end
$scope module SingleCycleProcTest_v $end
$var wire 64 ! currentPC [63:0] $end
$var wire 64 " MemtoRegOut [63:0] $end
$var reg 1 # CLK $end
$var reg 1 $ Reset_L $end
$var reg 8 % passed [7:0] $end
$var reg 64 & startPC [63:0] $end
$var reg 16 ' watchdog [15:0] $end
$scope module uut $end
$var wire 1 # CLK $end
$var wire 1 $ resetl $end
$var wire 64 ( startpc [63:0] $end
$var wire 1 ) zero $end
$var wire 1 * uncond_branch $end
$var wire 3 + signop [2:0] $end
$var wire 5 , rn [4:0] $end
$var wire 5 - rm [4:0] $end
$var wire 1 . regwrite $end
$var wire 64 / regoutB [63:0] $end
$var wire 64 0 regoutA [63:0] $end
$var wire 1 1 reg2loc $end
$var wire 5 2 rd [4:0] $end
$var wire 11 3 opcode [10:0] $end
$var wire 64 4 nextpc [63:0] $end
$var wire 1 5 memwrite $end
$var wire 1 6 memread $end
$var wire 1 7 mem2reg $end
$var wire 32 8 instruction [31:0] $end
$var wire 64 9 extimm [63:0] $end
$var wire 64 : dmemout [63:0] $end
$var wire 1 ; branch $end
$var wire 1 < alusrc $end
$var wire 64 = aluout [63:0] $end
$var wire 4 > aluctrl [3:0] $end
$var reg 64 ? currentpc [63:0] $end
$scope module ALU $end
$var wire 64 @ BusB [63:0] $end
$var wire 1 ) Zero $end
$var wire 64 A BusA [63:0] $end
$var wire 4 B ALUCtrl [3:0] $end
$var reg 64 C BusW [63:0] $end
$upscope $end
$scope module DataMemory $end
$var wire 64 D Address [63:0] $end
$var wire 1 # Clock $end
$var wire 64 E WriteData [63:0] $end
$var wire 1 5 MemoryWrite $end
$var wire 1 6 MemoryRead $end
$var reg 64 F ReadData [63:0] $end
$scope task initset $end
$var reg 64 G addr [63:0] $end
$var reg 64 H data [63:0] $end
$upscope $end
$upscope $end
$scope module NextPClogic $end
$var wire 1 ) ALUZero $end
$var wire 64 I CurrentPC [63:0] $end
$var wire 1 * Uncondbranch $end
$var wire 64 J SignExtImm64 [63:0] $end
$var wire 1 ; Branch $end
$var reg 64 K NextPC [63:0] $end
$upscope $end
$scope module RegisterFile $end
$var wire 64 L BusW [63:0] $end
$var wire 1 # Clk $end
$var wire 5 M RA [4:0] $end
$var wire 5 N RB [4:0] $end
$var wire 5 O RW [4:0] $end
$var wire 1 . RegWr $end
$var wire 64 P BusB [63:0] $end
$var wire 64 Q BusA [63:0] $end
$upscope $end
$scope module SignExtender $end
$var wire 26 R Imm26 [25:0] $end
$var wire 3 S Ctrl [2:0] $end
$var reg 64 T BusImm [63:0] $end
$var reg 1 U extBit $end
$upscope $end
$scope module control $end
$var wire 11 V opcode [10:0] $end
$var reg 4 W aluop [3:0] $end
$var reg 1 < alusrc $end
$var reg 1 ; branch $end
$var reg 1 7 mem2reg $end
$var reg 1 6 memread $end
$var reg 1 5 memwrite $end
$var reg 1 1 reg2loc $end
$var reg 1 . regwrite $end
$var reg 3 X signop [2:0] $end
$var reg 1 * uncond_branch $end
$upscope $end
$scope module imem $end
$var wire 64 Y Address [63:0] $end
$var reg 32 Z Data [31:0] $end
$upscope $end
$upscope $end
$scope task allPassed $end
$var reg 8 [ numTests [7:0] $end
$var reg 8 \ passed [7:0] $end
$upscope $end
$scope task passTest $end
$var reg 64 ] actualOut [63:0] $end
$var reg 64 ^ expectedOut [63:0] $end
$var reg 8 _ passed [7:0] $end
$var reg 257 ` testType [256:0] $end
$upscope $end
$upscope $end
$enddefinitions $end
#0
$dumpvars
bx `
bx _
bx ^
bx ]
bx \
bx [
bx Z
bx Y
bx X
bx W
bx V
xU
bx T
bx S
bx R
bx Q
bx P
bx O
bx N
bx M
bx L
bx K
bx J
bx I
b0 H
b100000 G
bx F
bx E
bx D
bx C
bx B
bx A
bx @
bx ?
bx >
bx =
x<
x;
bx :
bx 9
bx 8
x7
x6
x5
bx 4
bx 3
bx 2
x1
bx 0
bx /
x.
bx -
bx ,
bx +
x*
x)
b0 (
b0 '
b0 &
b0 %
1$
0#
bx "
bx !
$end
#60000
1#
#120000
b1 '
0#
#121000
0$
#180000
1#
#240000
b10 '
0#
#243000
b0 @
b0 9
b0 J
b0 T
0U
b1 +
b1 S
b1 X
b10 >
b10 B
b10 W
1.
1<
05
17
16
0;
0*
z1
b0x00x ,
b0x00x N
b10000000000001111101001 R
b11111000010 3
b11111000010 V
b11111 -
b11111 M
b1001 2
b1001 O
b100 4
b100 K
b11111000010000000000001111101001 8
b11111000010000000000001111101001 Z
b0 !
b0 ?
b0 I
b0 Y
#245000
1)
b0 =
b0 C
b0 D
b0 0
b0 A
b0 Q
#300000
b1 L
b1 "
b1 :
b1 F
1$
1#
#360000
b11 '
0#
#363000
0)
b1000 =
b1000 C
b1000 D
b1000 @
b1000 9
b1000 J
b1000 T
b0x0x0 ,
b0x0x0 N
b10000001000001111101010 R
b1010 2
b1010 O
b1000 4
b1000 K
b11111000010000001000001111101010 8
b11111000010000001000001111101010 Z
b100 !
b100 ?
b100 I
b100 Y
#420000
b1010 L
b1010 "
b1010 :
b1010 F
1#
#480000
b100 '
0#
#483000
b10000 =
b10000 C
b10000 D
b10000 @
b10000 9
b10000 J
b10000 T
b0x0x1 ,
b0x0x1 N
b10000010000001111101011 R
b1011 2
b1011 O
b1100 4
b1100 K
b11111000010000010000001111101011 8
b11111000010000010000001111101011 Z
b1000 !
b1000 ?
b1000 I
b1000 Y
#540000
b101 L
b101 "
b101 :
b101 F
1#
#600000
b101 '
0#
#603000
b11000 =
b11000 C
b11000 D
b11000 @
b11000 9
b11000 J
b11000 T
b0xx0x ,
b0xx0x N
b10000011000001111101100 R
b1100 2
b1100 O
b10000 4
b10000 K
b11111000010000011000001111101100 8
b11111000010000011000001111101100 Z
b1100 !
b1100 ?
b1100 I
b1100 Y
#660000
b111111111011111010100111110111101010110110111110111011111111 L
b111111111011111010100111110111101010110110111110111011111111 "
b111111111011111010100111110111101010110110111110111011111111 :
b111111111011111010100111110111101010110110111110111011111111 F
1#
#720000
b110 '
0#
#723000
b100000 =
b100000 C
b100000 D
b100000 @
b100000 9
b100000 J
b100000 T
b0xxxx ,
b0xxxx N
b10000100000001111101101 R
b1101 2
b1101 O
b10100 4
b10100 K
b11111000010000100000001111101101 8
b11111000010000100000001111101101 Z
b10000 !
b10000 ?
b10000 I
b10000 Y
#780000
b0 L
b0 "
b0 :
b0 F
1#
#840000
b111 '
0#
#843000
x)
bx =
bx C
bx D
bx @
bx L
bz +
bz S
bz X
b1 >
b1 B
b1 W
0<
07
06
01
b1011 ,
b1011 N
b10000010110000000101001010 R
b10101010000 3
b10101010000 V
b1010 -
b1010 M
b1010 2
b1010 O
b11000 4
b11000 K
b10101010000010110000000101001010 8
b10101010000010110000000101001010 Z
b10100 !
b10100 ?
b10100 I
b10100 Y
#845000
b1111 L
b101 @
0)
b1111 =
b1111 C
b1111 D
b101 /
b101 E
b101 P
b1010 0
b1010 A
b1010 Q
#900000
1#
#960000
b1000 '
0#
#963000
b0 L
1)
b0 =
b0 C
b0 D
b0 >
b0 B
b0 W
b1010 ,
b1010 N
b10000010100000000110001100 R
b10001010000 3
b10001010000 V
b1100 -
b1100 M
b1100 2
b1100 O
b11100 4
b11100 K
b10001010000010100000000110001100 8
b10001010000010100000000110001100 Z
b11000 !
b11000 ?
b11000 I
b11000 Y
#965000
b1111 L
b1111 @
0)
b1111 =
b1111 C
b1111 D
b1111 /
b1111 E
b1111 P
b111111111011111010100111110111101010110110111110111011111111 0
b111111111011111010100111110111101010110110111110111011111111 A
b111111111011111010100111110111101010110110111110111011111111 Q
#1020000
1#
#1080000
b1001 '
0#
#1083000
b0xxxx L
b100 9
b100 J
b100 T
b11 +
b11 S
b11 X
b111 >
b111 B
b111 W
0.
z7
1;
11
b1100 ,
b1100 N
b10001100 R
b10110100000 3
b10110100000 V
b100 -
b100 M
b100000 4
b100000 K
b10110100000000000000000010001100 8
b10110100000000000000000010001100 Z
b11100 !
b11100 ?
b11100 I
b11100 Y
#1085000
bx 0
bx A
bx Q
#1140000
1#
#1200000
b1010 '
0#
#1203000
x)
bx =
bx C
bx D
bx L
bz +
bz S
bz X
b10 >
b10 B
b10 W
1.
07
0;
01
b1001 ,
b1001 N
b11000010010000000110101101 R
b10001011000 3
b10001011000 V
b1101 -
b1101 M
b1101 2
b1101 O
b100100 4
b100100 K
b10001011000010010000000110101101 8
b10001011000010010000000110101101 Z
b100000 !
b100000 ?
b100000 I
b100000 Y
#1205000
b1 L
b1 @
0)
b1 =
b1 C
b1 D
b1 /
b1 E
b1 P
b0 0
b0 A
b0 Q
#1260000
1#
#1320000
b1011 '
0#
#1323000
b1111111111111111111111111111111111111111111111111111111111111111 L
b1111111111111111111111111111111111111111111111111111111111111111 =
b1111111111111111111111111111111111111111111111111111111111111111 C
b1111111111111111111111111111111111111111111111111111111111111111 D
b110 >
b110 B
b110 W
b11000010010000000110001100 R
b11001011000 3
b11001011000 V
b1100 -
b1100 M
b1100 2
b1100 O
b101000 4
b101000 K
b11001011000010010000000110001100 8
b11001011000010010000000110001100 Z
b100100 !
b100100 ?
b100100 I
b100100 Y
#1325000
b1110 L
b1110 =
b1110 C
b1110 D
b1111 0
b1111 A
b1111 Q
#1380000
1#
#1440000
b1100 '
0#
#1443000
1)
b0 =
b0 C
b0 D
bx01 @
b0 L
b1111111111111111111111111111111111111111111111111111111111111101 9
b1111111111111111111111111111111111111111111111111111111111111101 J
b1111111111111111111111111111111111111111111111111111111111111101 T
1U
b10 +
b10 S
b10 X
bx >
bx B
bx W
0.
x<
x7
x;
1*
x1
b111x1 ,
b111x1 N
b11111111111111111111111101 R
b10111111 3
b10111111 V
b11111 -
b11111 M
b11101 2
b11101 O
b11100 4
b11100 K
b10111111111111111111111111101 8
b10111111111111111111111111101 Z
b101000 !
b101000 ?
b101000 I
b101000 Y
#1445000
bx @
bx /
bx E
bx P
b0 0
b0 A
b0 Q
#1500000
1#
#1560000
b1101 '
0#
#1563000
bx L
x)
bx =
bx C
bx D
b100 9
b100 J
b100 T
0U
b11 +
b11 S
b11 X
b111 >
b111 B
b111 W
0<
z7
1;
0*
11
b1100 ,
b1100 N
b10001100 R
b10110100000 3
b10110100000 V
b100 -
b100 M
b1100 2
b1100 O
b100000 4
b100000 K
b10110100000000000000000010001100 8
b10110100000000000000000010001100 Z
b11100 !
b11100 ?
b11100 I
b11100 Y
#1565000
b0xxx0 L
0)
b1110 =
b1110 C
b1110 D
b1110 @
b1110 /
b1110 E
b1110 P
bx 0
bx A
bx Q
#1620000
1#
#1680000
b1110 '
0#
#1683000
x)
bx =
bx C
bx D
bx L
bz +
bz S
bz X
b10 >
b10 B
b10 W
1.
07
0;
01
b1001 ,
b1001 N
b11000010010000000110101101 R
b10001011000 3
b10001011000 V
b1101 -
b1101 M
b1101 2
b1101 O
b100100 4
b100100 K
b10001011000010010000000110101101 8
b10001011000010010000000110101101 Z
b100000 !
b100000 ?
b100000 I
b100000 Y
#1685000
b10 L
b1 @
0)
b10 =
b10 C
b10 D
b1 /
b1 E
b1 P
b1 0
b1 A
b1 Q
#1740000
1#
#1800000
b1111 '
0#
#1803000
b0 L
1)
b0 =
b0 C
b0 D
b110 >
b110 B
b110 W
b11000010010000000110001100 R
b11001011000 3
b11001011000 V
b1100 -
b1100 M
b1100 2
b1100 O
b101000 4
b101000 K
b11001011000010010000000110001100 8
b11001011000010010000000110001100 Z
b100100 !
b100100 ?
b100100 I
b100100 Y
#1805000
b1101 L
0)
b1101 =
b1101 C
b1101 D
b1110 0
b1110 A
b1110 Q
#1860000
1#
#1920000
b10000 '
0#
#1923000
1)
b0 =
b0 C
b0 D
bx01 @
b0 L
b1111111111111111111111111111111111111111111111111111111111111101 9
b1111111111111111111111111111111111111111111111111111111111111101 J
b1111111111111111111111111111111111111111111111111111111111111101 T
1U
b10 +
b10 S
b10 X
bx >
bx B
bx W
0.
x<
x7
x;
1*
x1
b111x1 ,
b111x1 N
b11111111111111111111111101 R
b10111111 3
b10111111 V
b11111 -
b11111 M
b11101 2
b11101 O
b11100 4
b11100 K
b10111111111111111111111111101 8
b10111111111111111111111111101 Z
b101000 !
b101000 ?
b101000 I
b101000 Y
#1925000
bx @
bx /
bx E
bx P
b0 0
b0 A
b0 Q
#1980000
1#
#2040000
b10001 '
0#
#2043000
bx L
x)
bx =
bx C
bx D
b100 9
b100 J
b100 T
0U
b11 +
b11 S
b11 X
b111 >
b111 B
b111 W
0<
z7
1;
0*
11
b1100 ,
b1100 N
b10001100 R
b10110100000 3
b10110100000 V
b100 -
b100 M
b1100 2
b1100 O
b100000 4
b100000 K
b10110100000000000000000010001100 8
b10110100000000000000000010001100 Z
b11100 !
b11100 ?
b11100 I
b11100 Y
#2045000
b0xx0x L
0)
b1101 =
b1101 C
b1101 D
b1101 @
b1101 /
b1101 E
b1101 P
bx 0
bx A
bx Q
#2100000
1#
#2160000
b10010 '
0#
#2163000
x)
bx =
bx C
bx D
bx L
bz +
bz S
bz X
b10 >
b10 B
b10 W
1.
07
0;
01
b1001 ,
b1001 N
b11000010010000000110101101 R
b10001011000 3
b10001011000 V
b1101 -
b1101 M
b1101 2
b1101 O
b100100 4
b100100 K
b10001011000010010000000110101101 8
b10001011000010010000000110101101 Z
b100000 !
b100000 ?
b100000 I
b100000 Y
#2165000
b11 L
b1 @
0)
b11 =
b11 C
b11 D
b1 /
b1 E
b1 P
b10 0
b10 A
b10 Q
#2220000
1#
#2280000
b10011 '
0#
#2283000
b1 L
b1 =
b1 C
b1 D
b110 >
b110 B
b110 W
b11000010010000000110001100 R
b11001011000 3
b11001011000 V
b1100 -
b1100 M
b1100 2
b1100 O
b101000 4
b101000 K
b11001011000010010000000110001100 8
b11001011000010010000000110001100 Z
b100100 !
b100100 ?
b100100 I
b100100 Y
#2285000
b1100 L
b1100 =
b1100 C
b1100 D
b1101 0
b1101 A
b1101 Q
#2340000
1#
#2400000
b10100 '
0#
#2403000
1)
b0 =
b0 C
b0 D
bx01 @
b0 L
b1111111111111111111111111111111111111111111111111111111111111101 9
b1111111111111111111111111111111111111111111111111111111111111101 J
b1111111111111111111111111111111111111111111111111111111111111101 T
1U
b10 +
b10 S
b10 X
bx >
bx B
bx W
0.
x<
x7
x;
1*
x1
b111x1 ,
b111x1 N
b11111111111111111111111101 R
b10111111 3
b10111111 V
b11111 -
b11111 M
b11101 2
b11101 O
b11100 4
b11100 K
b10111111111111111111111111101 8
b10111111111111111111111111101 Z
b101000 !
b101000 ?
b101000 I
b101000 Y
#2405000
bx @
bx /
bx E
bx P
b0 0
b0 A
b0 Q
#2460000
1#
#2520000
b10101 '
0#
#2523000
bx L
x)
bx =
bx C
bx D
b100 9
b100 J
b100 T
0U
b11 +
b11 S
b11 X
b111 >
b111 B
b111 W
0<
z7
1;
0*
11
b1100 ,
b1100 N
b10001100 R
b10110100000 3
b10110100000 V
b100 -
b100 M
b1100 2
b1100 O
b100000 4
b100000 K
b10110100000000000000000010001100 8
b10110100000000000000000010001100 Z
b11100 !
b11100 ?
b11100 I
b11100 Y
#2525000
b0xx00 L
0)
b1100 =
b1100 C
b1100 D
b1100 @
b1100 /
b1100 E
b1100 P
bx 0
bx A
bx Q
#2580000
1#
#2640000
b10110 '
0#
#2643000
x)
bx =
bx C
bx D
bx L
bz +
bz S
bz X
b10 >
b10 B
b10 W
1.
07
0;
01
b1001 ,
b1001 N
b11000010010000000110101101 R
b10001011000 3
b10001011000 V
b1101 -
b1101 M
b1101 2
b1101 O
b100100 4
b100100 K
b10001011000010010000000110101101 8
b10001011000010010000000110101101 Z
b100000 !
b100000 ?
b100000 I
b100000 Y
#2645000
b100 L
b1 @
0)
b100 =
b100 C
b100 D
b1 /
b1 E
b1 P
b11 0
b11 A
b11 Q
#2700000
1#
#2760000
b10111 '
0#
#2763000
b10 L
b10 =
b10 C
b10 D
b110 >
b110 B
b110 W
b11000010010000000110001100 R
b11001011000 3
b11001011000 V
b1100 -
b1100 M
b1100 2
b1100 O
b101000 4
b101000 K
b11001011000010010000000110001100 8
b11001011000010010000000110001100 Z
b100100 !
b100100 ?
b100100 I
b100100 Y
#2765000
b1011 L
b1011 =
b1011 C
b1011 D
b1100 0
b1100 A
b1100 Q
#2820000
1#
#2880000
b11000 '
0#
#2883000
1)
b0 =
b0 C
b0 D
bx01 @
b0 L
b1111111111111111111111111111111111111111111111111111111111111101 9
b1111111111111111111111111111111111111111111111111111111111111101 J
b1111111111111111111111111111111111111111111111111111111111111101 T
1U
b10 +
b10 S
b10 X
bx >
bx B
bx W
0.
x<
x7
x;
1*
x1
b111x1 ,
b111x1 N
b11111111111111111111111101 R
b10111111 3
b10111111 V
b11111 -
b11111 M
b11101 2
b11101 O
b11100 4
b11100 K
b10111111111111111111111111101 8
b10111111111111111111111111101 Z
b101000 !
b101000 ?
b101000 I
b101000 Y
#2885000
bx @
bx /
bx E
bx P
b0 0
b0 A
b0 Q
#2940000
1#
#3000000
b11001 '
0#
#3003000
bx L
x)
bx =
bx C
bx D
b100 9
b100 J
b100 T
0U
b11 +
b11 S
b11 X
b111 >
b111 B
b111 W
0<
z7
1;
0*
11
b1100 ,
b1100 N
b10001100 R
b10110100000 3
b10110100000 V
b100 -
b100 M
b1100 2
b1100 O
b100000 4
b100000 K
b10110100000000000000000010001100 8
b10110100000000000000000010001100 Z
b11100 !
b11100 ?
b11100 I
b11100 Y
#3005000
b0x0xx L
0)
b1011 =
b1011 C
b1011 D
b1011 @
b1011 /
b1011 E
b1011 P
bx 0
bx A
bx Q
#3060000
1#
#3120000
b11010 '
0#
#3123000
x)
bx =
bx C
bx D
bx L
bz +
bz S
bz X
b10 >
b10 B
b10 W
1.
07
0;
01
b1001 ,
b1001 N
b11000010010000000110101101 R
b10001011000 3
b10001011000 V
b1101 -
b1101 M
b1101 2
b1101 O
b100100 4
b100100 K
b10001011000010010000000110101101 8
b10001011000010010000000110101101 Z
b100000 !
b100000 ?
b100000 I
b100000 Y
#3125000
b101 L
b1 @
0)
b101 =
b101 C
b101 D
b1 /
b1 E
b1 P
b100 0
b100 A
b100 Q
#3180000
1#
#3240000
b11011 '
0#
#3243000
b11 L
b11 =
b11 C
b11 D
b110 >
b110 B
b110 W
b11000010010000000110001100 R
b11001011000 3
b11001011000 V
b1100 -
b1100 M
b1100 2
b1100 O
b101000 4
b101000 K
b11001011000010010000000110001100 8
b11001011000010010000000110001100 Z
b100100 !
b100100 ?
b100100 I
b100100 Y
#3245000
b1010 L
b1010 =
b1010 C
b1010 D
b1011 0
b1011 A
b1011 Q
#3300000
1#
#3360000
b11100 '
0#
#3363000
1)
b0 =
b0 C
b0 D
bx01 @
b0 L
b1111111111111111111111111111111111111111111111111111111111111101 9
b1111111111111111111111111111111111111111111111111111111111111101 J
b1111111111111111111111111111111111111111111111111111111111111101 T
1U
b10 +
b10 S
b10 X
bx >
bx B
bx W
0.
x<
x7
x;
1*
x1
b111x1 ,
b111x1 N
b11111111111111111111111101 R
b10111111 3
b10111111 V
b11111 -
b11111 M
b11101 2
b11101 O
b11100 4
b11100 K
b10111111111111111111111111101 8
b10111111111111111111111111101 Z
b101000 !
b101000 ?
b101000 I
b101000 Y
#3365000
bx @
bx /
bx E
bx P
b0 0
b0 A
b0 Q
#3420000
1#
#3480000
b11101 '
0#
#3483000
bx L
x)
bx =
bx C
bx D
b100 9
b100 J
b100 T
0U
b11 +
b11 S
b11 X
b111 >
b111 B
b111 W
0<
z7
1;
0*
11
b1100 ,
b1100 N
b10001100 R
b10110100000 3
b10110100000 V
b100 -
b100 M
b1100 2
b1100 O
b100000 4
b100000 K
b10110100000000000000000010001100 8
b10110100000000000000000010001100 Z
b11100 !
b11100 ?
b11100 I
b11100 Y
#3485000
b0x0x0 L
0)
b1010 =
b1010 C
b1010 D
b1010 @
b1010 /
b1010 E
b1010 P
bx 0
bx A
bx Q
#3540000
1#
#3600000
b11110 '
0#
#3603000
x)
bx =
bx C
bx D
bx L
bz +
bz S
bz X
b10 >
b10 B
b10 W
1.
07
0;
01
b1001 ,
b1001 N
b11000010010000000110101101 R
b10001011000 3
b10001011000 V
b1101 -
b1101 M
b1101 2
b1101 O
b100100 4
b100100 K
b10001011000010010000000110101101 8
b10001011000010010000000110101101 Z
b100000 !
b100000 ?
b100000 I
b100000 Y
#3605000
b110 L
b1 @
0)
b110 =
b110 C
b110 D
b1 /
b1 E
b1 P
b101 0
b101 A
b101 Q
#3660000
1#
#3720000
b11111 '
0#
#3723000
b100 L
b100 =
b100 C
b100 D
b110 >
b110 B
b110 W
b11000010010000000110001100 R
b11001011000 3
b11001011000 V
b1100 -
b1100 M
b1100 2
b1100 O
b101000 4
b101000 K
b11001011000010010000000110001100 8
b11001011000010010000000110001100 Z
b100100 !
b100100 ?
b100100 I
b100100 Y
#3725000
b1001 L
b1001 =
b1001 C
b1001 D
b1010 0
b1010 A
b1010 Q
#3780000
1#
#3840000
b100000 '
0#
#3843000
1)
b0 =
b0 C
b0 D
bx01 @
b0 L
b1111111111111111111111111111111111111111111111111111111111111101 9
b1111111111111111111111111111111111111111111111111111111111111101 J
b1111111111111111111111111111111111111111111111111111111111111101 T
1U
b10 +
b10 S
b10 X
bx >
bx B
bx W
0.
x<
x7
x;
1*
x1
b111x1 ,
b111x1 N
b11111111111111111111111101 R
b10111111 3
b10111111 V
b11111 -
b11111 M
b11101 2
b11101 O
b11100 4
b11100 K
b10111111111111111111111111101 8
b10111111111111111111111111101 Z
b101000 !
b101000 ?
b101000 I
b101000 Y
#3845000
bx @
bx /
bx E
bx P
b0 0
b0 A
b0 Q
#3900000
1#
#3960000
b100001 '
0#
#3963000
bx L
x)
bx =
bx C
bx D
b100 9
b100 J
b100 T
0U
b11 +
b11 S
b11 X
b111 >
b111 B
b111 W
0<
z7
1;
0*
11
b1100 ,
b1100 N
b10001100 R
b10110100000 3
b10110100000 V
b100 -
b100 M
b1100 2
b1100 O
b100000 4
b100000 K
b10110100000000000000000010001100 8
b10110100000000000000000010001100 Z
b11100 !
b11100 ?
b11100 I
b11100 Y
#3965000
b0x00x L
0)
b1001 =
b1001 C
b1001 D
b1001 @
b1001 /
b1001 E
b1001 P
bx 0
bx A
bx Q
#4020000
1#
#4080000
b100010 '
0#
#4083000
x)
bx =
bx C
bx D
bx L
bz +
bz S
bz X
b10 >
b10 B
b10 W
1.
07
0;
01
b1001 ,
b1001 N
b11000010010000000110101101 R
b10001011000 3
b10001011000 V
b1101 -
b1101 M
b1101 2
b1101 O
b100100 4
b100100 K
b10001011000010010000000110101101 8
b10001011000010010000000110101101 Z
b100000 !
b100000 ?
b100000 I
b100000 Y
#4085000
b111 L
b1 @
0)
b111 =
b111 C
b111 D
b1 /
b1 E
b1 P
b110 0
b110 A
b110 Q
#4140000
1#
#4200000
b100011 '
0#
#4203000
b101 L
b101 =
b101 C
b101 D
b110 >
b110 B
b110 W
b11000010010000000110001100 R
b11001011000 3
b11001011000 V
b1100 -
b1100 M
b1100 2
b1100 O
b101000 4
b101000 K
b11001011000010010000000110001100 8
b11001011000010010000000110001100 Z
b100100 !
b100100 ?
b100100 I
b100100 Y
#4205000
b1000 L
b1000 =
b1000 C
b1000 D
b1001 0
b1001 A
b1001 Q
#4260000
1#
#4320000
b100100 '
0#
#4323000
1)
b0 =
b0 C
b0 D
bx01 @
b0 L
b1111111111111111111111111111111111111111111111111111111111111101 9
b1111111111111111111111111111111111111111111111111111111111111101 J
b1111111111111111111111111111111111111111111111111111111111111101 T
1U
b10 +
b10 S
b10 X
bx >
bx B
bx W
0.
x<
x7
x;
1*
x1
b111x1 ,
b111x1 N
b11111111111111111111111101 R
b10111111 3
b10111111 V
b11111 -
b11111 M
b11101 2
b11101 O
b11100 4
b11100 K
b10111111111111111111111111101 8
b10111111111111111111111111101 Z
b101000 !
b101000 ?
b101000 I
b101000 Y
#4325000
bx @
bx /
bx E
bx P
b0 0
b0 A
b0 Q
#4380000
1#
#4440000
b100101 '
0#
#4443000
bx L
x)
bx =
bx C
bx D
b100 9
b100 J
b100 T
0U
b11 +
b11 S
b11 X
b111 >
b111 B
b111 W
0<
z7
1;
0*
11
b1100 ,
b1100 N
b10001100 R
b10110100000 3
b10110100000 V
b100 -
b100 M
b1100 2
b1100 O
b100000 4
b100000 K
b10110100000000000000000010001100 8
b10110100000000000000000010001100 Z
b11100 !
b11100 ?
b11100 I
b11100 Y
#4445000
b0x000 L
0)
b1000 =
b1000 C
b1000 D
b1000 @
b1000 /
b1000 E
b1000 P
bx 0
bx A
bx Q
#4500000
1#
#4560000
b100110 '
0#
#4563000
x)
bx =
bx C
bx D
bx L
bz +
bz S
bz X
b10 >
b10 B
b10 W
1.
07
0;
01
b1001 ,
b1001 N
b11000010010000000110101101 R
b10001011000 3
b10001011000 V
b1101 -
b1101 M
b1101 2
b1101 O
b100100 4
b100100 K
b10001011000010010000000110101101 8
b10001011000010010000000110101101 Z
b100000 !
b100000 ?
b100000 I
b100000 Y
#4565000
b1000 L
b1 @
0)
b1000 =
b1000 C
b1000 D
b1 /
b1 E
b1 P
b111 0
b111 A
b111 Q
#4620000
1#
#4680000
b100111 '
0#
#4683000
b110 L
b110 =
b110 C
b110 D
b110 >
b110 B
b110 W
b11000010010000000110001100 R
b11001011000 3
b11001011000 V
b1100 -
b1100 M
b1100 2
b1100 O
b101000 4
b101000 K
b11001011000010010000000110001100 8
b11001011000010010000000110001100 Z
b100100 !
b100100 ?
b100100 I
b100100 Y
#4685000
b111 L
b111 =
b111 C
b111 D
b1000 0
b1000 A
b1000 Q
#4740000
1#
#4800000
b101000 '
0#
#4803000
1)
b0 =
b0 C
b0 D
bx01 @
b0 L
b1111111111111111111111111111111111111111111111111111111111111101 9
b1111111111111111111111111111111111111111111111111111111111111101 J
b1111111111111111111111111111111111111111111111111111111111111101 T
1U
b10 +
b10 S
b10 X
bx >
bx B
bx W
0.
x<
x7
x;
1*
x1
b111x1 ,
b111x1 N
b11111111111111111111111101 R
b10111111 3
b10111111 V
b11111 -
b11111 M
b11101 2
b11101 O
b11100 4
b11100 K
b10111111111111111111111111101 8
b10111111111111111111111111101 Z
b101000 !
b101000 ?
b101000 I
b101000 Y
#4805000
bx @
bx /
bx E
bx P
b0 0
b0 A
b0 Q
#4860000
1#
#4920000
b101001 '
0#
#4923000
bx L
x)
bx =
bx C
bx D
b100 9
b100 J
b100 T
0U
b11 +
b11 S
b11 X
b111 >
b111 B
b111 W
0<
z7
1;
0*
11
b1100 ,
b1100 N
b10001100 R
b10110100000 3
b10110100000 V
b100 -
b100 M
b1100 2
b1100 O
b100000 4
b100000 K
b10110100000000000000000010001100 8
b10110100000000000000000010001100 Z
b11100 !
b11100 ?
b11100 I
b11100 Y
#4925000
b0xxx L
0)
b111 =
b111 C
b111 D
b111 @
b111 /
b111 E
b111 P
bx 0
bx A
bx Q
#4980000
1#
#5040000
b101010 '
0#
#5043000
x)
bx =
bx C
bx D
bx L
bz +
bz S
bz X
b10 >
b10 B
b10 W
1.
07
0;
01
b1001 ,
b1001 N
b11000010010000000110101101 R
b10001011000 3
b10001011000 V
b1101 -
b1101 M
b1101 2
b1101 O
b100100 4
b100100 K
b10001011000010010000000110101101 8
b10001011000010010000000110101101 Z
b100000 !
b100000 ?
b100000 I
b100000 Y
#5045000
b1001 L
b1 @
0)
b1001 =
b1001 C
b1001 D
b1 /
b1 E
b1 P
b1000 0
b1000 A
b1000 Q
#5100000
1#
#5160000
b101011 '
0#
#5163000
b111 L
b111 =
b111 C
b111 D
b110 >
b110 B
b110 W
b11000010010000000110001100 R
b11001011000 3
b11001011000 V
b1100 -
b1100 M
b1100 2
b1100 O
b101000 4
b101000 K
b11001011000010010000000110001100 8
b11001011000010010000000110001100 Z
b100100 !
b100100 ?
b100100 I
b100100 Y
#5165000
b110 L
b110 =
b110 C
b110 D
b111 0
b111 A
b111 Q
#5220000
1#
#5280000
b101100 '
0#
#5283000
1)
b0 =
b0 C
b0 D
bx01 @
b0 L
b1111111111111111111111111111111111111111111111111111111111111101 9
b1111111111111111111111111111111111111111111111111111111111111101 J
b1111111111111111111111111111111111111111111111111111111111111101 T
1U
b10 +
b10 S
b10 X
bx >
bx B
bx W
0.
x<
x7
x;
1*
x1
b111x1 ,
b111x1 N
b11111111111111111111111101 R
b10111111 3
b10111111 V
b11111 -
b11111 M
b11101 2
b11101 O
b11100 4
b11100 K
b10111111111111111111111111101 8
b10111111111111111111111111101 Z
b101000 !
b101000 ?
b101000 I
b101000 Y
#5285000
bx @
bx /
bx E
bx P
b0 0
b0 A
b0 Q
#5340000
1#
#5400000
b101101 '
0#
#5403000
bx L
x)
bx =
bx C
bx D
b100 9
b100 J
b100 T
0U
b11 +
b11 S
b11 X
b111 >
b111 B
b111 W
0<
z7
1;
0*
11
b1100 ,
b1100 N
b10001100 R
b10110100000 3
b10110100000 V
b100 -
b100 M
b1100 2
b1100 O
b100000 4
b100000 K
b10110100000000000000000010001100 8
b10110100000000000000000010001100 Z
b11100 !
b11100 ?
b11100 I
b11100 Y
#5405000
b0xx0 L
0)
b110 =
b110 C
b110 D
b110 @
b110 /
b110 E
b110 P
bx 0
bx A
bx Q
#5460000
1#
#5520000
b101110 '
0#
#5523000
x)
bx =
bx C
bx D
bx L
bz +
bz S
bz X
b10 >
b10 B
b10 W
1.
07
0;
01
b1001 ,
b1001 N
b11000010010000000110101101 R
b10001011000 3
b10001011000 V
b1101 -
b1101 M
b1101 2
b1101 O
b100100 4
b100100 K
b10001011000010010000000110101101 8
b10001011000010010000000110101101 Z
b100000 !
b100000 ?
b100000 I
b100000 Y
